Lab5/Lab5-1/src/down_counter.vcd
$date
	Thu Jun 30 12:02:44 2022
$end
$version
	Icarus Verilog
$end
$timescale
	10ps
$end
$scope module frequency_divider_1Hz $end
$var wire 1 ! clk $end
$var wire 1 " rst_n $end
$var reg 1 # clk_div $end
$var reg 1 $ clk_div_ssd $end
$var reg 26 % counter [25:0] $end
$var reg 16 & counter_ssd [15:0] $end
$upscope $end
$scope module tb_top $end
$var wire 16 ' led [15:0] $end
$var wire 8 ( display [7:0] $end
$var wire 4 ) ctrl [3:0] $end
$var reg 2 * btn [1:0] $end
$var reg 1 + clk $end
$var reg 1 , rst_n $end
$scope module t1 $end
$var wire 2 - btn [1:0] $end
$var wire 1 + clk $end
$var wire 1 . clk_div $end
$var wire 1 / clk_div_ssd $end
$var wire 1 , rst_n $end
$var wire 4 0 tens_BCD [3:0] $end
$var wire 2 1 push_onepulse [1:0] $end
$var wire 2 2 push_debounced [1:0] $end
$var wire 16 3 led [15:0] $end
$var wire 8 4 display [7:0] $end
$var wire 4 5 digits_BCD [3:0] $end
$var wire 4 6 ctrl [3:0] $end
$var wire 1 7 count_en $end
$var wire 6 8 binary [5:0] $end
$scope module b1 $end
$var wire 4 9 tens_BCD [3:0] $end
$var wire 4 : digits_BCD [3:0] $end
$var wire 6 ; binary [5:0] $end
$var reg 8 < BCD [7:0] $end
$var integer 32 = i [31:0] $end
$upscope $end
$scope module c1 $end
$var wire 1 . clk $end
$var wire 1 > push_onepulse $end
$var wire 1 , rst_n $end
$var wire 1 7 count_en $end
$var reg 1 ? cs $end
$var reg 1 @ ns $end
$upscope $end
$scope module d1 $end
$var wire 1 A btn $end
$var wire 1 . clk $end
$var wire 1 , rst_n $end
$var reg 1 B push_debounced $end
$var reg 4 C push_window [3:0] $end
$upscope $end
$scope module d2 $end
$var wire 1 D btn $end
$var wire 1 . clk $end
$var wire 1 , rst_n $end
$var reg 1 E push_debounced $end
$var reg 4 F push_window [3:0] $end
$upscope $end
$scope module dc1 $end
$var wire 1 . clk $end
$var wire 1 7 count_en $end
$var wire 1 G push_onepulse $end
$var wire 1 , rst_n $end
$var wire 16 H led [15:0] $end
$var reg 6 I binary [5:0] $end
$upscope $end
$scope module p1 $end
$var wire 1 . clk $end
$var wire 1 J push_debounced $end
$var wire 1 , rst_n $end
$var reg 1 K push_debounced_delay $end
$var reg 1 L push_onepulse $end
$upscope $end
$scope module p2 $end
$var wire 1 . clk $end
$var wire 1 M push_debounced $end
$var wire 1 , rst_n $end
$var reg 1 N push_debounced_delay $end
$var reg 1 O push_onepulse $end
$upscope $end
$scope module ssc1 $end
$var wire 1 / clk $end
$var wire 4 P digits_BCD [3:0] $end
$var wire 1 , rst_n $end
$var wire 4 Q tens_BCD [3:0] $end
$var reg 4 R BCD [3:0] $end
$var reg 1 S cnt $end
$var reg 4 T ctrl [3:0] $end
$var reg 8 U display [7:0] $end
$upscope $end
$upscope $end
$upscope $end
$enddefinitions $end
#0
$dumpvars
b1110001 U
b1110 T
0S
b1010 R
bx11 Q
b1010 P
0O
0N
0M
0L
0K
0J
b101000 I
b1 H
0G
b0 F
0E
0D
b0 C
0B
0A
1@
1?
0>
b110 =
bx111010 <
b101000 ;
b1010 :
bx11 9
b101000 8
17
b1110 6
b1010 5
b1110001 4
b1 3
b0 2
b0 1
bx11 0
0/
0.
b0 -
0,
0+
b0 *
b1110 )
b1110001 (
b1 '
bx &
bx %
x$
x#
z"
z!
$end
#500
1.
1/
1+
#1000
0.
0/
0+
#1300
1,
#1500
b10011111 (
b10011111 4
b10011111 U
b1 0
b1 9
b1 Q
b101 5
b101 :
b101 P
b10101 <
b110 =
b1101 )
b1101 6
b1101 T
b1 R
b100111 8
b100111 ;
b100111 I
1S
1.
1/
1+
#2000
0.
0/
0+
#2500
b1001 0
b1001 9
b1001 Q
b1000 5
b1000 :
b1000 P
b1 (
b1 4
b1 U
b10011000 <
b110 =
b1110 )
b1110 6
b1110 T
b1000 R
b100110 8
b100110 ;
b100110 I
0S
1.
1/
1+
#3000
0.
0/
0+
#3500
b0 0
b0 9
b0 Q
b1001 5
b1001 :
b1001 P
b11 (
b11 4
b11 U
b1001 <
b110 =
b1101 )
b1101 6
b1101 T
b0 R
b100101 8
b100101 ;
b100101 I
1S
1.
1/
1+
#4000
0.
0/
0+
#4500
b1 0
b1 9
b1 Q
b10 5
b10 :
b10 P
b100101 (
b100101 4
b100101 U
b10010 <
b110 =
b1110 )
b1110 6
b1110 T
b10 R
b100100 8
b100100 ;
b100100 I
0S
1.
1/
1+
#5000
0.
0/
0+
#5500
b0 0
b0 9
b0 Q
b11 5
b11 :
b11 P
b11 (
b11 4
b11 U
b11 <
b110 =
b1101 )
b1101 6
b1101 T
b0 R
b100011 8
b100011 ;
b100011 I
1S
1.
1/
1+
#6000
0.
0/
0+
#6500
b10 0
b10 9
b10 Q
b110 5
b110 :
b110 P
b1000001 (
b1000001 4
b1000001 U
b100110 <
b110 =
b1110 )
b1110 6
b1110 T
b110 R
b100010 8
b100010 ;
b100010 I
0S
1.
1/
1+
#7000
0.
0/
0+
#7500
b1001 0
b1001 9
b1001 Q
b111 5
b111 :
b111 P
b1001 (
b1001 4
b1001 U
b10010111 <
b110 =
b1101 )
b1101 6
b1101 T
b1001 R
b100001 8
b100001 ;
b100001 I
1S
1.
1/
1+
#8000
0.
0/
0+
#8500
b100 0
b100 9
b100 Q
b0 5
b0 :
b0 P
b11 (
b11 4
b11 U
b1000000 <
b110 =
b1110 )
b1110 6
b1110 T
b0 R
b100000 8
b100000 ;
b100000 I
0S
1.
1/
1+
#9000
0.
0/
0+
#9500
b1 5
b1 :
b1 P
b1001 0
b1001 9
b1001 Q
b1001 (
b1001 4
b1001 U
b10010001 <
b110 =
b1101 )
b1101 6
b1101 T
b1001 R
b11111 8
b11111 ;
b11111 I
1S
1.
1/
1+
#10000
0.
0/
0+
#10500
b100 5
b100 :
b100 P
b101 0
b101 9
b101 Q
b10011001 (
b10011001 4
b10011001 U
b1010100 <
b110 =
b1110 )
b1110 6
b1110 T
b100 R
b11110 8
b11110 ;
b11110 I
0S
1.
1/
1+
#11000
0.
0/
0+
#11500
b101 5
b101 :
b101 P
b1000 0
b1000 9
b1000 Q
b1 (
b1 4
b1 U
b10000101 <
b110 =
b1101 )
b1101 6
b1101 T
b1000 R
b11101 8
b11101 ;
b11101 I
1S
1.
1/
1+
#12000
0.
0/
0+
#12500
b110 0
b110 9
b110 Q
b1000 5
b1000 :
b1000 P
b1 (
b1 4
b1 U
b1101000 <
b110 =
b1110 )
b1110 6
b1110 T
b1000 R
b11100 8
b11100 ;
b11100 I
0S
1.
1/
1+
#13000
0.
0/
0+
#13500
b111 0
b111 9
b111 Q
b1001 5
b1001 :
b1001 P
b11111 (
b11111 4
b11111 U
b1111001 <
b110 =
b1101 )
b1101 6
b1101 T
b111 R
b11011 8
b11011 ;
b11011 I
1S
1.
1/
1+
#14000
0.
0/
0+
#14500
b1000 0
b1000 9
b1000 Q
b10 5
b10 :
b10 P
b100101 (
b100101 4
b100101 U
b10000010 <
b110 =
b1110 )
b1110 6
b1110 T
b10 R
b11010 8
b11010 ;
b11010 I
0S
1.
1/
1+
#15000
0.
0/
0+
#15500
b11 5
b11 :
b11 P
b111 0
b111 9
b111 Q
b11111 (
b11111 4
b11111 U
b1110011 <
b110 =
b1101 )
b1101 6
b1101 T
b111 R
b11001 8
b11001 ;
b11001 I
1S
1.
1/
1+
#16000
0.
0/
0+
#16500
b110 5
b110 :
b110 P
b1001 0
b1001 9
b1001 Q
b1000001 (
b1000001 4
b1000001 U
b10010110 <
b110 =
b1110 )
b1110 6
b1110 T
b110 R
b11000 8
b11000 ;
b11000 I
0S
1.
1/
1+
#17000
0.
0/
0+
#17500
b110 0
b110 9
b110 Q
b111 5
b111 :
b111 P
b1000001 (
b1000001 4
b1000001 U
b1100111 <
b110 =
b1101 )
b1101 6
b1101 T
b110 R
b10111 8
b10111 ;
b10111 I
1S
1.
1/
1+
#18000
0.
0/
0+
#18500
b1 0
b1 9
b1 Q
b0 5
b0 :
b0 P
b11 (
b11 4
b11 U
b10000 <
b110 =
b1110 )
b1110 6
b1110 T
b0 R
b10110 8
b10110 ;
b10110 I
0S
1.
1/
1+
#19000
0.
0/
0+
#19500
b1 5
b1 :
b1 P
b110 0
b110 9
b110 Q
b1000001 (
b1000001 4
b1000001 U
b1100001 <
b110 =
b1101 )
b1101 6
b1101 T
b110 R
b10101 8
b10101 ;
b10101 I
1S
1.
1/
1+
#20000
0.
0/
0+
#20500
b100 5
b100 :
b100 P
b10 0
b10 9
b10 Q
b10011001 (
b10011001 4
b10011001 U
b100100 <
b110 =
b1110 )
b1110 6
b1110 T
b100 R
b10100 8
b10100 ;
b10100 I
0S
1.
1/
1+
#21000
0.
0/
0+
#21500
b101 0
b101 9
b101 Q
b101 5
b101 :
b101 P
b1001001 (
b1001001 4
b1001001 U
b1010101 <
b110 =
b1101 )
b1101 6
b1101 T
b101 R
b10011 8
b10011 ;
b10011 I
1S
1.
1/
1+
#22000
0.
0/
0+
#22500
b1 (
b1 4
b1 U
b1000 R
b11 0
b11 9
b11 Q
b1000 5
b1000 :
b1000 P
b111000 <
b110 =
b1110 )
b1110 6
b1110 T
b10010 8
b10010 ;
b10010 I
0S
1.
1/
1+
#23000
0.
0/
0+
#23500
b100 0
b100 9
b100 Q
b1001 5
b1001 :
b1001 P
b10011001 (
b10011001 4
b10011001 U
b1001001 <
b110 =
b1101 )
b1101 6
b1101 T
b100 R
b10001 8
b10001 ;
b10001 I
1S
1.
1/
1+
#24000
0.
0/
0+
#24500
b101 0
b101 9
b101 Q
b10 5
b10 :
b10 P
b100101 (
b100101 4
b100101 U
b1010010 <
b110 =
b1110 )
b1110 6
b1110 T
b10 R
b10000 8
b10000 ;
b10000 I
0S
1.
1/
1+
#25000
0.
0/
0+
#25500
b11 5
b11 :
b11 P
b100 0
b100 9
b100 Q
b10011001 (
b10011001 4
b10011001 U
b1000011 <
b110 =
b1101 )
b1101 6
b1101 T
b100 R
b1111 8
b1111 ;
b1111 I
1S
1.
1/
1+
#26000
0.
0/
0+
#26500
b110 0
b110 9
b110 Q
b110 5
b110 :
b110 P
b1000001 (
b1000001 4
b1000001 U
b1100110 <
b110 =
b1110 )
b1110 6
b1110 T
b110 R
b1110 8
b1110 ;
b1110 I
0S
1.
1/
1+
#27000
0.
0/
0+
#27500
b1101 (
b1101 4
b1101 U
b11 R
b11 0
b11 9
b11 Q
b111 5
b111 :
b111 P
b110111 <
b110 =
b1101 )
b1101 6
b1101 T
b1101 8
b1101 ;
b1101 I
1S
1.
1/
1+
#28000
0.
0/
0+
#28500
b1000 0
b1000 9
b1000 Q
b0 5
b0 :
b0 P
b11 (
b11 4
b11 U
b10000000 <
b110 =
b1110 )
b1110 6
b1110 T
b0 R
b1100 8
b1100 ;
b1100 I
0S
1.
1/
1+
#29000
0.
0/
0+
#29500
b1 5
b1 :
b1 P
b11 0
b11 9
b11 Q
b1101 (
b1101 4
b1101 U
b110001 <
b110 =
b1101 )
b1101 6
b1101 T
b11 R
b1011 8
b1011 ;
b1011 I
1S
1.
1/
1+
#30000
0.
0/
0+
#30500
b1001 0
b1001 9
b1001 Q
b100 5
b100 :
b100 P
b10011001 (
b10011001 4
b10011001 U
b10010100 <
b110 =
b1110 )
b1110 6
b1110 T
b100 R
b1010 8
b1010 ;
b1010 I
0S
1.
1/
1+
#31000
0.
0/
0+
#31500
b101 5
b101 :
b101 P
b10 0
b10 9
b10 Q
b100101 (
b100101 4
b100101 U
b100101 <
b110 =
b1101 )
b1101 6
b1101 T
b10 R
b1001 8
b1001 ;
b1001 I
1S
1.
1/
1+
#32000
0.
0/
0+
#32500
b0 0
b0 9
b0 Q
b1000 5
b1000 :
b1000 P
b1 (
b1 4
b1 U
b1000 <
b110 =
b1110 )
b1110 6
b1110 T
b1000 R
b1000 8
b1000 ;
b1000 I
0S
1.
1/
1+
#33000
0.
0/
0+
#33500
b1 0
b1 9
b1 Q
b1001 5
b1001 :
b1001 P
b10011111 (
b10011111 4
b10011111 U
b11001 <
b110 =
b1101 )
b1101 6
b1101 T
b1 R
b111 8
b111 ;
b111 I
1S
1.
1/
1+
#34000
0.
0/
0+
#34500
b10 0
b10 9
b10 Q
b10 5
b10 :
b10 P
b100101 (
b100101 4
b100101 U
b100010 <
b110 =
b1110 )
b1110 6
b1110 T
b10 R
b110 8
b110 ;
b110 I
0S
1.
1/
1+
#35000
0.
0/
0+
#35500
b10011111 (
b10011111 4
b10011111 U
b1 R
b1 0
b1 9
b1 Q
b11 5
b11 :
b11 P
b10011 <
b110 =
b1101 )
b1101 6
b1101 T
b101 8
b101 ;
b101 I
1S
1.
1/
1+
#36000
0.
0/
0+
#36500
b11 0
b11 9
b11 Q
b110 5
b110 :
b110 P
b1000001 (
b1000001 4
b1000001 U
b110110 <
b110 =
b1110 )
b1110 6
b1110 T
b110 R
b100 8
b100 ;
b100 I
0S
1.
1/
1+
#37000
0.
0/
0+
#37500
b0 0
b0 9
b0 Q
b111 5
b111 :
b111 P
b11 (
b11 4
b11 U
b111 <
b110 =
b1101 )
b1101 6
b1101 T
b0 R
b11 8
b11 ;
b11 I
1S
1.
1/
1+
#38000
0.
0/
0+
#38500
b101 0
b101 9
b101 Q
b0 5
b0 :
b0 P
b11 (
b11 4
b11 U
b1010000 <
b110 =
b1110 )
b1110 6
b1110 T
b0 R
b10 8
b10 ;
b10 I
0S
1.
1/
1+
#39000
0.
0/
0+
#39500
b1 5
b1 :
b1 P
b0 0
b0 9
b0 Q
b11 (
b11 4
b11 U
b1 <
b110 =
b1101 )
b1101 6
b1101 T
b0 R
b1 8
b1 ;
b1 I
1S
1.
1/
1+
#40000
0.
0/
0+
#40500
b110 0
b110 9
b110 Q
b100 5
b100 :
b100 P
b10011001 (
b10011001 4
b10011001 U
b1111111111111111 '
b1111111111111111 3
b1111111111111111 H
b1100100 <
b110 =
b1110 )
b1110 6
b1110 T
b100 R
b0 8
b0 ;
b0 I
0S
1.
1/
1+
#41000
0.
0/
0+
#41500
b110 5
b110 :
b110 P
b11 0
b11 9
b11 Q
b1101 (
b1101 4
b1101 U
b1 '
b1 3
b1 H
b110110 <
b110 =
b1101 )
b1101 6
b1101 T
b11 R
b101000 8
b101000 ;
b101000 I
1S
1.
1/
1+
#42000
0.
0/
0+
#42500
b100 0
b100 9
b100 Q
b11 5
b11 :
b11 P
b1101 (
b1101 4
b1101 U
b1000011 <
b110 =
b1110 )
b1110 6
b1110 T
b11 R
b100111 8
b100111 ;
b100111 I
0S
1.
1/
1+
#43000
0.
0/
0+
#43500
b1001 0
b1001 9
b1001 Q
b0 5
b0 :
b0 P
b1001 (
b1001 4
b1001 U
b10010000 <
b110 =
b1101 )
b1101 6
b1101 T
b1001 R
b100110 8
b100110 ;
b100110 I
1S
1.
1/
1+
#44000
0.
0/
0+
#44500
b111 5
b111 :
b111 P
b11111 (
b11111 4
b11111 U
b10010111 <
b110 =
b1110 )
b1110 6
b1110 T
b111 R
b100101 8
b100101 ;
b100101 I
0S
1.
1/
1+
#45000
0.
0/
0+
#45500
b100 0
b100 9
b100 Q
b100 5
b100 :
b100 P
b10011001 (
b10011001 4
b10011001 U
b1000100 <
b110 =
b1101 )
b1101 6
b1101 T
b100 R
b100100 8
b100100 ;
b100100 I
1S
1.
1/
1+
#46000
0.
0/
0+
#46500
b10011111 (
b10011111 4
b10011111 U
b1 R
b101 0
b101 9
b101 Q
b1 5
b1 :
b1 P
b1010001 <
b110 =
b1110 )
b1110 6
b1110 T
b100011 8
b100011 ;
b100011 I
0S
1.
1/
1+
#47000
0.
0/
0+
#47500
b1000 5
b1000 :
b1000 P
b1001 0
b1001 9
b1001 Q
b1001 (
b1001 4
b1001 U
b10011000 <
b110 =
b1101 )
b1101 6
b1101 T
b1001 R
b100010 8
b100010 ;
b100010 I
1S
1.
1/
1+
#48000
0.
0/
0+
#48500
b0 0
b0 9
b0 Q
b101 5
b101 :
b101 P
b1001001 (
b1001001 4
b1001001 U
b101 <
b110 =
b1110 )
b1110 6
b1110 T
b101 R
b100001 8
b100001 ;
b100001 I
0S
1.
1/
1+
#49000
0.
0/
0+
#49500
b101 0
b101 9
b101 Q
b10 5
b10 :
b10 P
b1001001 (
b1001001 4
b1001001 U
b1010010 <
b110 =
b1101 )
b1101 6
b1101 T
b101 R
b100000 8
b100000 ;
b100000 I
1S
1.
1/
1+
#50000
0.
0/
0+
#50500
b1001 5
b1001 :
b1001 P
b1001 (
b1001 4
b1001 U
b1011001 <
b110 =
b1110 )
b1110 6
b1110 T
b1001 R
b11111 8
b11111 ;
b11111 I
0S
1.
1/
1+
#51000
0.
0/
0+
#51500
b0 0
b0 9
b0 Q
b110 5
b110 :
b110 P
b11 (
b11 4
b11 U
b110 <
b110 =
b1101 )
b1101 6
b1101 T
b0 R
b11110 8
b11110 ;
b11110 I
1S
1.
1/
1+
#52000
0.
0/
0+
#52500
b1 0
b1 9
b1 Q
b11 5
b11 :
b11 P
b1101 (
b1101 4
b1101 U
b10011 <
b110 =
b1110 )
b1110 6
b1110 T
b11 R
b11101 8
b11101 ;
b11101 I
0S
1.
1/
1+
#53000
0.
0/
0+
#53500
b110 0
b110 9
b110 Q
b0 5
b0 :
b0 P
b1000001 (
b1000001 4
b1000001 U
b1100000 <
b110 =
b1101 )
b1101 6
b1101 T
b110 R
b11100 8
b11100 ;
b11100 I
1S
1.
1/
1+
#54000
0.
0/
0+
#54500
b111 5
b111 :
b111 P
b11111 (
b11111 4
b11111 U
b1100111 <
b110 =
b1110 )
b1110 6
b1110 T
b111 R
b11011 8
b11011 ;
b11011 I
0S
1.
1/
1+
#55000
0.
0/
0+
#55500
b1 0
b1 9
b1 Q
b100 5
b100 :
b100 P
b10011111 (
b10011111 4
b10011111 U
b10100 <
b110 =
b1101 )
b1101 6
b1101 T
b1 R
b11010 8
b11010 ;
b11010 I
1S
1.
1/
1+
#56000
0.
0/
0+
#56500
b10 0
b10 9
b10 Q
b1 5
b1 :
b1 P
b10011111 (
b10011111 4
b10011111 U
b100001 <
b110 =
b1110 )
b1110 6
b1110 T
b1 R
b11001 8
b11001 ;
b11001 I
0S
1.
1/
1+
#57000
0.
0/
0+
#57500
b110 0
b110 9
b110 Q
b1000 5
b1000 :
b1000 P
b1000001 (
b1000001 4
b1000001 U
b1101000 <
b110 =
b1101 )
b1101 6
b1101 T
b110 R
b11000 8
b11000 ;
b11000 I
1S
1.
1/
1+
#58000
0.
0/
0+
#58500
b111 0
b111 9
b111 Q
b101 5
b101 :
b101 P
b1001001 (
b1001001 4
b1001001 U
b1110101 <
b110 =
b1110 )
b1110 6
b1110 T
b101 R
b10111 8
b10111 ;
b10111 I
0S
1.
1/
1+
#59000
0.
0/
0+
#59500
b10 0
b10 9
b10 Q
b10 5
b10 :
b10 P
b100101 (
b100101 4
b100101 U
b100010 <
b110 =
b1101 )
b1101 6
b1101 T
b10 R
b10110 8
b10110 ;
b10110 I
1S
1.
1/
1+
#60000
0.
0/
0+
#60500
b1001 (
b1001 4
b1001 U
b1001 R
b1001 5
b1001 :
b1001 P
b101001 <
b110 =
b1110 )
b1110 6
b1110 T
b10101 8
b10101 ;
b10101 I
0S
1.
1/
1+
#61000
0.
0/
0+
#61300
1A
b1 *
b1 -
#61500
b111 0
b111 9
b111 Q
b110 5
b110 :
b110 P
b11111 (
b11111 4
b11111 U
b1110110 <
b110 =
b1101 )
b1101 6
b1101 T
b111 R
b1000 C
b10100 8
b10100 ;
b10100 I
1S
1.
1/
1+
#62000
0.
0/
0+
#62500
b1000 0
b1000 9
b1000 Q
b11 5
b11 :
b11 P
b1101 (
b1101 4
b1101 U
b10000011 <
b110 =
b1110 )
b1110 6
b1110 T
b11 R
b10011 8
b10011 ;
b10011 I
b1100 C
0S
1.
1/
1+
#63000
0.
0/
0+
#63500
b0 5
b0 :
b0 P
b11 0
b11 9
b11 Q
b1101 (
b1101 4
b1101 U
b110000 <
b110 =
b1101 )
b1101 6
b1101 T
b11 R
b1110 C
b10010 8
b10010 ;
b10010 I
1S
1.
1/
1+
#64000
0.
0/
0+
#64500
b111 5
b111 :
b111 P
b11111 (
b11111 4
b11111 U
b110111 <
b110 =
b1110 )
b1110 6
b1110 T
b111 R
b10001 8
b10001 ;
b10001 I
b1111 C
0S
1.
1/
1+
#65000
0.
0/
0+
#65500
b1000 0
b1000 9
b1000 Q
b100 5
b100 :
b100 P
b1 (
b1 4
b1 U
1J
b10000100 <
b110 =
b1101 )
b1101 6
b1101 T
b1000 R
b1 2
1B
b10000 8
b10000 ;
b10000 I
1S
1.
1/
1+
#66000
0.
0/
0+
#66500
b1 5
b1 :
b1 P
b1001 0
b1001 9
b1001 Q
0@
b10011111 (
b10011111 4
b10011111 U
b10010001 <
b110 =
1>
b1110 )
b1110 6
b1110 T
b1 R
b1111 8
b1111 ;
b1111 I
b1 1
1L
1K
0S
1.
1/
1+
#67000
0.
0/
0+
#67500
b0 '
b0 3
b0 H
07
b1000 5
b1000 :
b1000 P
b11 0
b11 9
b11 Q
b1101 (
b1101 4
b1101 U
0>
0@
b111000 <
b110 =
b1101 )
b1101 6
b1101 T
b11 R
b0 1
0L
0?
b1110 8
b1110 ;
b1110 I
1S
1.
1/
1+
#68000
0.
0/
0+
#68500
b1 (
b1 4
b1 U
b1110 )
b1110 6
b1110 T
b1000 R
0S
1.
1/
1+
#69000
0.
0/
0+
#69500
b1101 (
b1101 4
b1101 U
b1101 )
b1101 6
b1101 T
b11 R
1S
1.
1/
1+
#70000
0.
0/
0+
#70500
b1 (
b1 4
b1 U
b1110 )
b1110 6
b1110 T
b1000 R
0S
1.
1/
1+
#71000
0.
0/
0+
#71300
0A
1D
b10 *
b10 -
#71500
b1101 (
b1101 4
b1101 U
b1101 )
b1101 6
b1101 T
b11 R
b111 C
b1000 F
1S
1.
1/
1+
#72000
0.
0/
0+
#72500
b1 (
b1 4
b1 U
0J
b1110 )
b1110 6
b1110 T
b1000 R
b1100 F
b0 2
0B
b11 C
0S
1.
1/
1+
#73000
0.
0/
0+
#73500
b1101 (
b1101 4
b1101 U
b1101 )
b1101 6
b1101 T
b11 R
b1 C
0K
b1110 F
1S
1.
1/
1+
#74000
0.
0/
0+
#74500
b1 (
b1 4
b1 U
b1110 )
b1110 6
b1110 T
b1000 R
b1111 F
b0 C
0S
1.
1/
1+
#75000
0.
0/
0+
#75500
b1101 (
b1101 4
b1101 U
1M
b1101 )
b1101 6
b1101 T
b11 R
b10 2
1E
1S
1.
1/
1+
#76000
0.
0/
0+
#76500
b1 (
b1 4
b1 U
1G
b1110 )
b1110 6
b1110 T
b1000 R
b10 1
1O
1N
0S
1.
1/
1+
#77000
0.
0/
0+
#77500
b111 0
b111 9
b111 Q
b10 5
b10 :
b10 P
b11111 (
b11111 4
b11111 U
0G
b1110010 <
b110 =
b1101 )
b1101 6
b1101 T
b111 R
b0 1
0O
b101000 8
b101000 ;
b101000 I
1S
1.
1/
1+
#78000
0.
0/
0+
#78500
b100101 (
b100101 4
b100101 U
b1110 )
b1110 6
b1110 T
b10 R
0S
1.
1/
1+
#79000
0.
0/
0+
#79500
b11111 (
b11111 4
b11111 U
b1101 )
b1101 6
b1101 T
b111 R
1S
1.
1/
1+
#80000
0.
0/
0+
#80500
b100101 (
b100101 4
b100101 U
b1110 )
b1110 6
b1110 T
b10 R
0S
1.
1/
1+
#81000
0.
0/
0+
#81300
1A
0D
b1 *
b1 -
#81500
b11111 (
b11111 4
b11111 U
b1101 )
b1101 6
b1101 T
b111 R
b1000 C
b111 F
1S
1.
1/
1+
#82000
0.
0/
0+
#82500
b100101 (
b100101 4
b100101 U
0M
b1110 )
b1110 6
b1110 T
b10 R
b0 2
0E
b11 F
b1100 C
0S
1.
1/
1+
#83000
0.
0/
0+
#83500
b11111 (
b11111 4
b11111 U
b1101 )
b1101 6
b1101 T
b111 R
b1110 C
b1 F
0N
1S
1.
1/
1+
#84000
0.
0/
0+
#84500
b100101 (
b100101 4
b100101 U
b1110 )
b1110 6
b1110 T
b10 R
b0 F
b1111 C
0S
1.
1/
1+
#85000
0.
0/
0+
#85500
b11111 (
b11111 4
b11111 U
1J
b1101 )
b1101 6
b1101 T
b111 R
b1 2
1B
1S
1.
1/
1+
#86000
0.
0/
0+
#86500
1@
b100101 (
b100101 4
b100101 U
1>
b1110 )
b1110 6
b1110 T
b10 R
b1 1
1L
1K
0S
1.
1/
1+
#87000
0.
0/
0+
#87500
b1 '
b1 3
b1 H
17
b11111 (
b11111 4
b11111 U
0>
1@
b1101 )
b1101 6
b1101 T
b111 R
b0 1
0L
1?
1S
1.
1/
1+
#88000
0.
0/
0+
#88500
b111 5
b111 :
b111 P
b100 0
b100 9
b100 Q
b11111 (
b11111 4
b11111 U
b1000111 <
b110 =
b1110 )
b1110 6
b1110 T
b111 R
b100111 8
b100111 ;
b100111 I
0S
1.
1/
1+
#89000
0.
0/
0+
#89500
b110 5
b110 :
b110 P
b10011001 (
b10011001 4
b10011001 U
b1000110 <
b110 =
b1101 )
b1101 6
b1101 T
b100 R
b100110 8
b100110 ;
b100110 I
1S
1.
1/
1+
#90000
0.
0/
0+
#90500
b1000 0
b1000 9
b1000 Q
b1 5
b1 :
b1 P
b10011111 (
b10011111 4
b10011111 U
b10000001 <
b110 =
b1110 )
b1110 6
b1110 T
b1 R
b100101 8
b100101 ;
b100101 I
0S
1.
1/
1+
#91000
0.
0/
0+
#91500
b0 5
b0 :
b0 P
b10 0
b10 9
b10 Q
b100101 (
b100101 4
b100101 U
b100000 <
b110 =
b1101 )
b1101 6
b1101 T
b10 R
b100100 8
b100100 ;
b100100 I
1S
1.
1/
1+
#92000
0.
0/
0+
#92500
b1 0
b1 9
b1 Q
b101 5
b101 :
b101 P
b1001001 (
b1001001 4
b1001001 U
b10101 <
b110 =
b1110 )
b1110 6
b1110 T
b101 R
b100011 8
b100011 ;
b100011 I
0S
1.
1/
1+
#93000
0.
0/
0+
#93500
b1001 0
b1001 9
b1001 Q
b100 5
b100 :
b100 P
b1001 (
b1001 4
b1001 U
b10010100 <
b110 =
b1101 )
b1101 6
b1101 T
b1001 R
b100010 8
b100010 ;
b100010 I
1S
1.
1/
1+
#94000
0.
0/
0+
#94500
b1001 5
b1001 :
b1001 P
b100 0
b100 9
b100 Q
b1001 (
b1001 4
b1001 U
b1001001 <
b110 =
b1110 )
b1110 6
b1110 T
b1001 R
b100001 8
b100001 ;
b100001 I
0S
1.
1/
1+
#95000
0.
0/
0+
#95500
b110 0
b110 9
b110 Q
b1000 5
b1000 :
b1000 P
b1000001 (
b1000001 4
b1000001 U
b1101000 <
b110 =
b1101 )
b1101 6
b1101 T
b110 R
b100000 8
b100000 ;
b100000 I
1S
1.
1/
1+
#96000
0.
0/
0+
#96500
b1000 0
b1000 9
b1000 Q
b11 5
b11 :
b11 P
b1101 (
b1101 4
b1101 U
b10000011 <
b110 =
b1110 )
b1110 6
b1110 T
b11 R
b11111 8
b11111 ;
b11111 I
0S
1.
1/
1+
#97000
0.
0/
0+
#97500
b10 5
b10 :
b10 P
b100 0
b100 9
b100 Q
b10011001 (
b10011001 4
b10011001 U
b1000010 <
b110 =
b1101 )
b1101 6
b1101 T
b100 R
b11110 8
b11110 ;
b11110 I
1S
1.
1/
1+
#98000
0.
0/
0+
#98500
b1 0
b1 9
b1 Q
b111 5
b111 :
b111 P
b11111 (
b11111 4
b11111 U
b10111 <
b110 =
b1110 )
b1110 6
b1110 T
b111 R
b11101 8
b11101 ;
b11101 I
0S
1.
1/
1+
#99000
0.
0/
0+
#99500
b110 5
b110 :
b110 P
b10011111 (
b10011111 4
b10011111 U
b10110 <
b110 =
b1101 )
b1101 6
b1101 T
b1 R
b11100 8
b11100 ;
b11100 I
1S
1.
1/
1+
#100000
0.
0/
0+
#100500
b101 0
b101 9
b101 Q
b1 5
b1 :
b1 P
b10011111 (
b10011111 4
b10011111 U
b1010001 <
b110 =
b1110 )
b1110 6
b1110 T
b1 R
b11011 8
b11011 ;
b11011 I
0S
1.
1/
1+
#101000
0.
0/
0+
#101300
0A
1D
b10 *
b10 -
#101500
b0 5
b0 :
b0 P
b1001 0
b1001 9
b1001 Q
b1001 (
b1001 4
b1001 U
b10010000 <
b110 =
b1101 )
b1101 6
b1101 T
b1001 R
b111 C
b1000 F
b11010 8
b11010 ;
b11010 I
1S
1.
1/
1+
#102000
0.
0/
0+
#102500
b101 5
b101 :
b101 P
b1000 0
b1000 9
b1000 Q
b1001001 (
b1001001 4
b1001001 U
b10000101 <
b110 =
0J
b1110 )
b1110 6
b1110 T
b101 R
b11001 8
b11001 ;
b11001 I
b1100 F
b0 2
0B
b11 C
0S
1.
1/
1+
#103000
0.
0/
0+
#103500
b110 0
b110 9
b110 Q
b100 5
b100 :
b100 P
b1000001 (
b1000001 4
b1000001 U
b1100100 <
b110 =
b1101 )
b1101 6
b1101 T
b110 R
b1 C
0K
b1110 F
b11000 8
b11000 ;
b11000 I
1S
1.
1/
1+
#104000
0.
0/
0+
#104500
b1001 5
b1001 :
b1001 P
b1 0
b1 9
b1 Q
b1001 (
b1001 4
b1001 U
b11001 <
b110 =
b1110 )
b1110 6
b1110 T
b1001 R
b10111 8
b10111 ;
b10111 I
b1111 F
b0 C
0S
1.
1/
1+
#105000
0.
0/
0+
#105500
b11 0
b11 9
b11 Q
b1000 5
b1000 :
b1000 P
b1101 (
b1101 4
b1101 U
1M
b111000 <
b110 =
b1101 )
b1101 6
b1101 T
b11 R
b10 2
1E
b10110 8
b10110 ;
b10110 I
1S
1.
1/
1+
#106000
0.
0/
0+
